{
  "type": "service_account",
  "project_id": "gpsproject02-f32b5",
  "private_key_id": "d155ecf20b3ccb986ca25cf2e6b0ca8e492c78e3",
  "private_key": "-----BEGIN PRIVATE KEY-----\nMIIEvAIBADANBgkqhkiG9w0BAQEFAASCBKYwggSiAgEAAoIBAQC5BXYY0u4+YTck\n0QMDvjNqicXAV59bigNjfy+tJ+mqJ5090uXPLuQiJauzUyc+UirTkS4oID6jtyHw\nsy9yx3OMMRCNMW1nnIhyCRH171LhRp84pZ2b4cXWVdUsMSgmJ/eB5kgR82y+XRrK\nYc+xD3c/wY3MZ+H+KF85s686bTAaovz6Q85sjJNA4EgurY6ekOAK6jVJFfvV+Pje\n1UePplRoGjGd1sJY4xlQjeR6nkbiF1/UFgVwzJY19JRuj1m/dA7YzuzxtLPiWrBO\nmaXt2HKYfgpD7rUeJtuJmGVdct6u+RR+kV/vj9G/SM1Ep/CC6iCuYFjhUDrg/2Ak\nWKFrNlOlAgMBAAECggEABcAytIDR4OR6p01Lz7D4viX8HIdcr6axhkUswTANZjmG\n/KXyeKcXdiw/kvpRrPE23Y6UpbCi4cnOZ0HahrHGWKQpxIm1wdOutgSsJz3CELh2\nOHeFV5QD5y6RyqbYfZ8eZU44DT7IsX4JWCMEJpe5eCTW+HR+JL0ygIOiPampJhq/\nQlJW2v9CPHMnTmyv4biEBqdUqWpCSZdnJ7CqydWKun15S+sGzjguaMtY5u3SytZ0\nrbZDYkKwbzt4uCo8P1s+cDcSPBokwP9Ud+H3CfgGO0pdqHU5sAcK7B/C8kOWNFsi\nlZ7ggDojWhvsFK3ejs6DLfrm2bSonvdMF+R69PmXnQKBgQDh52xG5ijdFWrcIc1b\n7Hnkq4TCo+jelB/nkKiGj8uSHTE75srMlTP75Pc8l9kPOSFFkB+m+jl08Iiw0Ej6\nuNQGHxO2fMyTA1guMI4DigjHWIjC+ihs6U5yXZbISnU1lIe/4NeVs8R1VdmGTmMB\nwbqhp1+5VSwiM+eZGH9841yM8wKBgQDRq7aUjYnjMrLoZVoQdfeYUcdPHHOnxRdv\nLEPRZl0jj6D5j8umLmI/m2AmqD2F/4UuemMQ2xsF4kaR2Xk3vav/vrG7BaMGdi+x\nWC2zvclcKSLHf7QqpBoE/Or7tEpjnLmZ5MzAavfG9AUO1dn0Et2OzO4rmUXcppFs\naScUg0HjBwKBgBTrbm5+X+hhVF0AUFkj5AHWFFxF+4mpI+84yTJ03IAybd3DOKKL\nap34DSEyWqp7OuaLOzMmVu3KXI4rK6b0OMY8WIH8uqEenSrh2jTfsoJrY3bS3a2A\nSYBzxEPWCVal45BUTQKS/C11fsheN/LwsszHiCjMh2K/dcIKr7ur/mUbAoGATlp4\nGZ2nGMN6fkRZ2urqwv5UmCjOw7RwpHgLQ/aX+dET3A8zkH+m8ZQz415d13R8pbjQ\nypzGxXUg4CJAHWeBHkp6CqT5nlGOUxzbv16+H/WzbJA5mPHIU3LcsYFXh1ArP+pz\n5bhTrgLE3R1nnMFsEJBetOZLaEDK+ZN2KkE+3wMCgYBArqfFDnZhMasINmLcSDhu\nT+zKPQBiU7N05c4u7tnD4dWHH/v3Pu5VIp0dn5Vls6ZoZT9IHq7zlxitlVIPLJy4\nk2qaDokDtl0P10mSzpB+89/FPwbEUaZzjs5/1ui1ymSLN/JzHXbPbsgBP/ACFJF/\npbqfL0uL8IQNU0xavKGT/w==\n-----END PRIVATE KEY-----\n",
  "client_email": "firebase-adminsdk-eqxs9@gpsproject02-f32b5.iam.gserviceaccount.com",
  "client_id": "100481069549688976552",
  "auth_uri": "https://accounts.google.com/o/oauth2/auth",
  "token_uri": "https://accounts.google.com/o/oauth2/token",
  "auth_provider_x509_cert_url": "https://www.googleapis.com/oauth2/v1/certs",
  "client_x509_cert_url": "https://www.googleapis.com/robot/v1/metadata/x509/firebase-adminsdk-eqxs9%40gpsproject02-f32b5.iam.gserviceaccount.com"
}
